{
  "routes": [
    "/service-worker.js",
    "/",
    "/about",
    "/hire/castles",
    "/hire/castles/paw-patrol",
    "/hire/castles/ninja-turtles",
    "/hire/castles/transformers",
    "/hire/castles/monster-high",
    "/hire/castles/disney-princess",
    "/frozen",
    "/hire/slushie",
    "/hire/floss-popcorn",
    "/contact"
  ]
}