<?xml version="1.0" standalone="no"?>
<!DOCTYPE svg PUBLIC "-//W3C//DTD SVG 20010904//EN"
 "http://www.w3.org/TR/2001/REC-SVG-20010904/DTD/svg10.dtd">
<svg version="1.0" xmlns="http://www.w3.org/2000/svg"
 width="807.000000pt" height="807.000000pt" viewBox="0 0 807.000000 807.000000"
 preserveAspectRatio="xMidYMid meet">
<metadata>
Created by potrace 1.11, written by Peter Selinger 2001-2013
</metadata>
<g transform="translate(0.000000,807.000000) scale(0.100000,-0.100000)"
fill="#000000" stroke="none">
<path d="M3808 8066 c-1 -2 -49 -6 -106 -10 -56 -4 -108 -9 -115 -11 -6 -2
-39 -6 -72 -9 -33 -4 -71 -8 -85 -11 -13 -3 -40 -7 -60 -10 -41 -6 -54 -9
-165 -31 -203 -40 -580 -156 -700 -214 -11 -5 -63 -28 -115 -50 -105 -46 -293
-143 -411 -213 -70 -42 -241 -151 -264 -170 -5 -5 -51 -39 -102 -76 -50 -37
-109 -83 -131 -102 -22 -19 -60 -50 -83 -69 -74 -58 -371 -359 -453 -459 -272
-328 -484 -677 -639 -1052 -85 -205 -137 -363 -197 -609 -25 -102 -32 -139
-45 -215 -2 -11 -8 -47 -14 -80 -6 -33 -13 -82 -16 -110 -3 -27 -8 -59 -10
-70 -30 -148 -26 -722 6 -965 6 -41 12 -91 15 -110 2 -19 11 -70 20 -113 8
-42 18 -90 20 -105 3 -15 12 -54 21 -87 8 -33 16 -67 18 -75 55 -273 259 -766
448 -1080 46 -77 184 -280 245 -360 243 -321 611 -676 901 -869 163 -109 229
-152 251 -164 14 -8 50 -29 80 -46 91 -52 368 -186 475 -229 222 -90 539 -183
740 -218 17 -2 37 -7 45 -9 8 -3 31 -7 50 -9 19 -3 85 -12 145 -20 176 -24
275 -30 525 -31 201 0 398 8 458 20 9 1 44 6 77 10 92 11 154 21 185 30 8 2
35 7 60 10 35 5 249 58 402 99 70 19 330 114 417 152 392 174 744 397 1071
678 77 67 350 347 425 436 482 578 798 1279 900 1995 3 22 7 54 10 70 36 243
42 747 10 985 -2 19 -7 58 -10 85 -3 28 -10 73 -15 100 -5 28 -12 66 -15 85
-3 19 -12 63 -20 96 -8 34 -16 73 -19 85 -13 73 -67 263 -107 384 -90 265
-229 565 -369 795 -241 398 -605 811 -940 1070 -25 19 -47 37 -50 40 -23 25
-331 235 -405 275 -11 7 -58 33 -104 59 -330 188 -813 365 -1176 430 -16 3
-41 8 -55 11 -13 2 -42 7 -65 10 -22 3 -65 10 -95 15 -30 5 -86 12 -125 15
-38 4 -81 9 -95 11 -27 6 -566 14 -572 10z"/>
</g>
</svg>
